<?xml version="1.0" ?>
<!-- =================================================================================== -->
<!-- |    This document was autogenerated by xacro from iri_wam_picker.urdf.xacro      | -->
<!-- |    EDITING THIS FILE BY HAND IS NOT RECOMMENDED                                 | -->
<!-- =================================================================================== -->
<robot name="iri_wam_picker" xmlns:xacro="http://www.ros.org/wiki/xacro">
  <!-- The first use of a macro. This one was defined in wambase.urdf.xacro above.
       A macro like this will expand to a set of link and joint definitions, and to additional
       Gazebo-related extensions (sensor plugins, etc).  The macro takes an argument, name, 
       that equals "wam", and uses it to generate names for its component links and joints 
       (e.g., wam_link_base).  The included origin block is also an argument to the macro.  By convention, 
       the origin block defines where the component is w.r.t its parent (in this case the parent 
       is the world frame). For more, see http://www.ros.org/wiki/xacro -->
  <!-- <xacro:property name="JointInterface" value="PositionJointInterface"/> -->
  <!-- This will attach the robot to the world link -->
  <link name="world"/>
  <joint name="fixed" type="fixed">
    <parent link="world"/>
    <child link="iri_wam_picker_link_footprint"/>
    <origin rpy="0 0 0" xyz="0 0 .72"/>
  </joint>
  <link name="iri_wam_picker_link_base">
    <inertial>
      <mass value="13.54761269"/>
      <origin rpy="0 0 0" xyz="-0.05875773 3.401e-05 -0.27239339"/>
      <inertia ixx="0.10828619" ixy="-0.00004640" ixz="-0.00513847" iyy="0.15647098" iyz="0.00004033" izz="0.21473177"/>
    </inertial>
    <visual>
      <origin rpy="0 0 0" xyz="0 0 0"/>
      <geometry>
        <mesh filename="package://iri_wam_description/mesh/wambase.stl" scale="1.0 1.0 1.0"/>
      </geometry>
      <material name="Grey">
        <color rgba="0.75 0.75 0.75 1.0"/>
      </material>
    </visual>
    <collision>
      <origin rpy="0 0 0" xyz="0.0 0.0 0.0"/>
      <geometry>
        <mesh filename="package://iri_wam_description/mesh/wambase.stl" scale="1.0 1.0 1.0"/>
      </geometry>
      <contact_coefficients kd="1.0" kp="1000.0" mu="0"/>
    </collision>
  </link>
  <link name="iri_wam_picker_link_footprint"/>
  <joint name="iri_wam_picker_joint_footprint" type="fixed">
    <origin rpy="0 0 0" xyz="0.22 0.14 0.346"/>
    <child link="iri_wam_picker_link_base"/>
    <parent link="iri_wam_picker_link_footprint"/>
  </joint>
  <gazebo reference="iri_wam_picker_link_base">
    <selfCollide>true</selfCollide>
    <material>Gazebo/Grey</material>
  </gazebo>
  <link name="iri_wam_picker_link_1">
    <inertial>
      <mass value="12.32138662"/>
      <origin rpy="0 0 0" xyz="0.0 -0.08111528 0.0"/>
      <inertia ixx="0.19585980" ixy="-0.00000004" ixz="-0.00000005" iyy="0.16877217" iyz="0.0" izz="0.10332526"/>
    </inertial>
    <visual>
      <origin rpy="0 0 0" xyz="0.0 0.0 0.0"/>
      <geometry name="iri_wam_picker_link_1_visual">
        <mesh filename="package://iri_wam_description/mesh/wam1.stl" scale="1.0 1.0 1.0"/>
      </geometry>
      <material name="Grey">
        <color rgba="0.75 0.75 0.75 1.0"/>
      </material>
    </visual>
    <collision>
      <origin rpy="0 0 0" xyz="0.0 0.0 0.0"/>
      <geometry name="iri_wam_picker_link_1_collision">
        <mesh filename="package://iri_wam_description/mesh/wam1.stl" scale="1.0 1.0 1.0"/>
      </geometry>
      <contact_coefficients kd="1.0" kp="1000.0" mu="0"/>
    </collision>
  </link>
  <gazebo reference="iri_wam_picker_link_1">
    <material>Gazebo/Grey</material>
    <selfCollide>true</selfCollide>
  </gazebo>
  <joint name="iri_wam_picker_joint_1" type="revolute">
    <parent link="iri_wam_picker_link_base"/>
    <child link="iri_wam_picker_link_1"/>
    <origin rpy="1.57079632679 0 0" xyz="0.0 0.0 0.0"/>
    <axis xyz="0 1 0"/>
    <limit effort="100" lower="-2.6" upper="2.6" velocity="2.0"/>
    <dynamics damping="10.0" friction="0.0"/>
    <!--  
        <calibration rising="0.0"/>
        <safety_controller k_velocity="10" k_position="15" soft_lower_limit="-2.0" soft_upper_limit="0.5" />
-->
  </joint>
  <transmission name="tran_1">
    <type>transmission_interface/SimpleTransmission</type>
    <joint name="iri_wam_picker_joint_1">
      <hardwareInterface>EffortJointInterface</hardwareInterface>
    </joint>
    <actuator name="motor_1">
      <hardwareInterface>EffortJointInterface</hardwareInterface>
      <mechanicalReduction>50</mechanicalReduction>
      <motorTorqueConstant>1</motorTorqueConstant>
      <!-- <pulsesPerRevolution>90000</pulsesPerRevolution> -->
    </actuator>
  </transmission>
  <link name="iri_wam_picker_link_2">
    <inertial>
      <mass value="0.43781733"/>
      <origin rpy="0 0 0" xyz="-0.00000294 0.0 0.05046950"/>
      <inertia ixx="0.00161440" ixy="0.00000003" ixz="0.00000003" iyy="0.00183371" iyz="-0.00000001" izz="0.00132135"/>
    </inertial>
    <visual>
      <origin rpy="0 0 0" xyz="0.0 0.0 0.0"/>
      <geometry name="iri_wam_picker_link_2_visual">
        <mesh filename="package://iri_wam_description/mesh/wam2.stl" scale="1.0 1.0 1.0"/>
      </geometry>
      <material name="Grey">
        <color rgba="0.75 0.75 0.75 1.0"/>
      </material>
    </visual>
    <collision>
      <origin rpy="0 0 0" xyz="0.0 0.0 0.0"/>
      <geometry name="iri_wam_picker_link_2_collision">
        <mesh filename="package://iri_wam_description/mesh/wam2.stl" scale="1.0 1.0 1.0"/>
      </geometry>
      <contact_coefficients kd="1.0" kp="1000.0" mu="0"/>
    </collision>
  </link>
  <gazebo reference="iri_wam_picker_link_2">
    <material>Gazebo/Grey</material>
    <selfCollide>true</selfCollide>
  </gazebo>
  <joint name="iri_wam_picker_joint_2" type="revolute">
    <parent link="iri_wam_picker_link_1"/>
    <child link="iri_wam_picker_link_2"/>
    <origin rpy="-1.57079632679 0 0 " xyz="0.0 0.0 0.0"/>
    <axis xyz="0 1 0"/>
    <limit effort="100" lower="-2.0" upper="2.0" velocity="2.0"/>
    <dynamics damping="15.0" friction="0.0"/>
    <!--  
        <calibration rising="0.0"/>
        <safety_controller k_velocity="10" k_position="15" soft_lower_limit="-2.0" soft_upper_limit="0.5" />
-->
  </joint>
  <transmission name="tran_2">
    <type>transmission_interface/SimpleTransmission</type>
    <joint name="iri_wam_picker_joint_2">
      <hardwareInterface>EffortJointInterface</hardwareInterface>
    </joint>
    <actuator name="motor_2">
      <hardwareInterface>EffortJointInterface</hardwareInterface>
      <mechanicalReduction>50</mechanicalReduction>
      <motorTorqueConstant>1</motorTorqueConstant>
      <!-- <pulsesPerRevolution>90000</pulsesPerRevolution> -->
    </actuator>
  </transmission>
  <link name="iri_wam_picker_link_3">
    <inertial>
      <mass value="0.51434309"/>
      <origin rpy="0 0 0" xyz="0.0 0.0 0.3"/>
      <inertia ixx="0.01126911" ixy="-0.00000010" ixz="0.00065539" iyy="0.01114036" iyz="-0.00000042" izz="0.00108419"/>
    </inertial>
    <visual>
      <origin rpy="0 0 0" xyz="0.0 0.0 0.0"/>
      <geometry name="iri_wam_picker_link_3_visual">
        <mesh filename="package://iri_wam_description/mesh/wam3.stl" scale="1.0 1.0 1.0"/>
      </geometry>
      <material name="Grey">
        <color rgba="0.75 0.75 0.75 1.0"/>
      </material>
    </visual>
    <collision>
      <origin rpy="0 0 0" xyz="0.0 0.0 0.0"/>
      <geometry name="iri_wam_picker_link_3_collision">
        <mesh filename="package://iri_wam_description/mesh/wam3.stl" scale="1.0 1.0 1.0"/>
        <!--                <cylinder length="0.6" radius="0.02"/> -->
      </geometry>
      <contact_coefficients kd="1.0" kp="1000.0" mu="0"/>
    </collision>
  </link>
  <gazebo reference="iri_wam_picker_link_3">
    <material>Gazebo/Grey</material>
    <selfCollide>true</selfCollide>
  </gazebo>
  <joint name="iri_wam_picker_joint_3" type="revolute">
    <parent link="iri_wam_picker_link_2"/>
    <child link="iri_wam_picker_link_3"/>
    <origin rpy="0 0 0" xyz="0.0 0.0 0.0"/>
    <axis xyz="0 0 1"/>
    <limit effort="15" lower="-2.8" upper="2.8" velocity="2.0"/>
    <dynamics damping="0.5" friction="0.0"/>
    <!--    
        <dynamics damping="0.0" friction="0.0"/>
        <calibration rising="0.0"/>
        <safety_controller k_velocity="10" k_position="15" soft_lower_limit="-2.0" soft_upper_limit="0.5" />
-->
  </joint>
  <transmission name="tran_3">
    <type>transmission_interface/SimpleTransmission</type>
    <joint name="iri_wam_picker_joint_3">
      <hardwareInterface>EffortJointInterface</hardwareInterface>
    </joint>
    <actuator name="motor_3">
      <hardwareInterface>EffortJointInterface</hardwareInterface>
      <mechanicalReduction>50</mechanicalReduction>
      <motorTorqueConstant>1</motorTorqueConstant>
      <!-- <pulsesPerRevolution>90000</pulsesPerRevolution> -->
    </actuator>
  </transmission>
  <link name="iri_wam_picker_link_4">
    <inertial>
      <mass value="1.53557618"/>
      <origin rpy="0 0 0" xyz="-0.04312665 -0.15074254 -0.00013023"/>
      <inertia ixx="0.00884488" ixy="0.00044315" ixz="0.00000038" iyy="0.00173787" iyz="0.00000985" izz="0.00890033"/>
    </inertial>
    <visual>
      <origin rpy="0 0 0" xyz="0.0 0.0 0.0"/>
      <geometry name="iri_wam_picker_link_4_visual">
        <mesh filename="package://iri_wam_description/mesh/wam4.stl" scale="1.0 1.0 1.0"/>
      </geometry>
      <material name="Grey">
        <color rgba="0.75 0.75 0.75 1.0"/>
      </material>
    </visual>
    <collision>
      <origin rpy="0 0 0" xyz="0.0 0.0 0.0"/>
      <geometry name="iri_wam_picker_link_4_collision">
        <mesh filename="package://iri_wam_description/mesh/wam4.stl" scale="1.0 1.0 1.0"/>
        <!--                <box size="0.10 0.10 0.10"/> -->
      </geometry>
      <contact_coefficients kd="1.0" kp="1000.0" mu="0"/>
    </collision>
  </link>
  <gazebo reference="iri_wam_picker_link_4">
    <material>Gazebo/Grey</material>
    <selfCollide>true</selfCollide>
  </gazebo>
  <joint name="iri_wam_picker_joint_4" type="revolute">
    <parent link="iri_wam_picker_link_3"/>
    <child link="iri_wam_picker_link_4"/>
    <origin rpy="-1.57079632679 0 0" xyz="0.045 0.0 0.55"/>
    <axis xyz="0 0 1"/>
    <limit effort="100" lower="-0.9" upper="3.1" velocity="2.0"/>
    <dynamics damping="20.0" friction="0.0"/>
    <!--    
        <calibration rising="0.0"/>
        <safety_controller k_velocity="10" k_position="15" soft_lower_limit="-2.0" soft_upper_limit="0.5" />
-->
  </joint>
  <transmission name="tran_4">
    <type>transmission_interface/SimpleTransmission</type>
    <joint name="iri_wam_picker_joint_4">
      <hardwareInterface>EffortJointInterface</hardwareInterface>
    </joint>
    <actuator name="motor_4">
      <hardwareInterface>EffortJointInterface</hardwareInterface>
      <mechanicalReduction>50</mechanicalReduction>
      <motorTorqueConstant>1</motorTorqueConstant>
      <!-- <pulsesPerRevolution>90000</pulsesPerRevolution> -->
    </actuator>
  </transmission>
  <link name="iri_wam_picker_link_5">
    <inertial>
      <mass value="0.14900551"/>
      <origin rpy="0 0 0" xyz="0 0 0"/>
      <inertia ixx="0.00006711" ixy="0.0" ixz="0.0" iyy="0.00008682" iyz="0.0" izz="0.00008708"/>
    </inertial>
    <visual>
      <origin rpy="0 0 0" xyz="0.0 0.0 0.0"/>
      <geometry name="iri_wam_picker_link_5_visual">
        <mesh filename="package://iri_wam_description/mesh/wam5.stl" scale="1.0 1.0 1.0"/>
      </geometry>
      <material name="Grey">
        <color rgba="0.75 0.75 0.75 1.0"/>
      </material>
    </visual>
    <collision>
      <origin rpy="0 0 0" xyz="0.0 0.0 0.0"/>
      <geometry name="iri_wam_picker_link_5_collision">
        <mesh filename="package://iri_wam_description/mesh/wam5.stl" scale="1.0 1.0 1.0"/>
        <!--                <box size="0.10 0.10 0.10"/> -->
      </geometry>
      <contact_coefficients kd="1.0" kp="1000.0" mu="0"/>
    </collision>
  </link>
  <gazebo reference="iri_wam_picker_link_5">
    <material>Gazebo/Grey</material>
    <selfCollide>true</selfCollide>
  </gazebo>
  <joint name="iri_wam_picker_joint_5" type="revolute">
    <parent link="iri_wam_picker_link_4"/>
    <child link="iri_wam_picker_link_5"/>
    <origin rpy="1.57079632679 0 0" xyz="-0.045 -0.3 0.0"/>
    <axis xyz="0 0 1"/>
    <limit effort="100" lower="-4.76" upper="1.24" velocity="2.0"/>
    <dynamics damping="0.2" friction="0.0"/>
    <!--    
        <calibration rising="0.0"/>
        <safety_controller k_velocity="10" k_position="15" soft_lower_limit="-2.0" soft_upper_limit="0.5" />
-->
  </joint>
  <transmission name="tran_5">
    <type>transmission_interface/SimpleTransmission</type>
    <joint name="iri_wam_picker_joint_5">
      <hardwareInterface>EffortJointInterface</hardwareInterface>
      <!--<hardwareInterface>EffortJointInterface</hardwareInterface>-->
    </joint>
    <actuator name="motor_5">
      <hardwareInterface>EffortJointInterface</hardwareInterface>
      <mechanicalReduction>50</mechanicalReduction>
      <motorTorqueConstant>1</motorTorqueConstant>
      <!-- <pulsesPerRevolution>90000</pulsesPerRevolution> -->
    </actuator>
  </transmission>
  <link name="iri_wam_picker_link_6">
    <inertial>
      <mass value="0.50669619"/>
      <origin rpy="0 0 0" xyz="0 0 0"/>
      <inertia ixx="0.00074716" ixy="0.0" ixz="0.0" iyy="0.00036938" iyz="-0.00001504" izz="0.00061906"/>
    </inertial>
    <visual>
      <origin rpy="0 0 0" xyz="0.0 0.0 0.0"/>
      <geometry name="iri_wam_picker_link_6_visual">
        <mesh filename="package://iri_wam_description/mesh/wam6.stl" scale="1.0 1.0 1.0"/>
      </geometry>
      <material name="Grey">
        <color rgba="0.75 0.75 0.75 1.0"/>
      </material>
    </visual>
    <collision>
      <origin rpy="0 0 0" xyz="0.0 0.0 0.0"/>
      <geometry name="iri_wam_picker_link_6_collision">
        <mesh filename="package://iri_wam_description/mesh/wam6.stl" scale="1.0 1.0 1.0"/>
        <!--                <box size="0.10 0.10 0.10"/> -->
      </geometry>
      <contact_coefficients kd="1.0" kp="1000.0" mu="0"/>
    </collision>
  </link>
  <gazebo reference="iri_wam_picker_link_6">
    <material>Gazebo/Grey</material>
    <selfCollide>true</selfCollide>
  </gazebo>
  <joint name="iri_wam_picker_joint_6" type="revolute">
    <parent link="iri_wam_picker_link_5"/>
    <child link="iri_wam_picker_link_6"/>
    <origin rpy="-1.57079632679 0 0" xyz="0.0 0.0 0.0"/>
    <axis xyz="0 0 1"/>
    <limit effort="100" lower="-1.57079632679" upper="1.57079632679" velocity="2.0"/>
    <dynamics damping="0.2" friction="0.0"/>
    <!--    
        <calibration rising="0.0"/>
        <safety_controller k_velocity="10" k_position="15" soft_lower_limit="-2.0" soft_upper_limit="0.5" />
-->
  </joint>
  <transmission name="tran_6">
    <type>transmission_interface/SimpleTransmission</type>
    <joint name="iri_wam_picker_joint_6">
      <hardwareInterface>EffortJointInterface</hardwareInterface>
    </joint>
    <actuator name="motor_6">
      <hardwareInterface>EffortJointInterface</hardwareInterface>
      <mechanicalReduction>50</mechanicalReduction>
      <motorTorqueConstant>1</motorTorqueConstant>
      <!-- <pulsesPerRevolution>90000</pulsesPerRevolution> -->
    </actuator>
  </transmission>
  <link name="iri_wam_picker_link_7">
    <inertial>
      <mass value="0.09910119"/>
      <origin rpy="0 0 0" xyz="0.0 0.0 0.05683734"/>
      <inertia ixx="0.00006469" ixy="0.0" ixz="0.0" iyy="0.00006469" iyz="0.0" izz="0.00012773"/>
    </inertial>
    <visual>
      <origin rpy="0 0 0" xyz="0.0 0.0 0.0"/>
      <geometry name="iri_wam_picker_link_7_visual">
        <mesh filename="package://iri_wam_description/mesh/wam7.stl" scale="1.0 1.0 1.0"/>
      </geometry>
      <material name="Grey">
        <color rgba="0.75 0.75 0.75 1.0"/>
      </material>
    </visual>
    <collision>
      <origin rpy="0 0 0" xyz="0.0 0.0 0.0"/>
      <geometry name="iri_wam_picker_link_7_collision">
        <mesh filename="package://iri_wam_description/mesh/wam7.stl" scale="1.0 1.0 1.0"/>
        <!--                <box size="0.10 0.10 0.10"/> -->
      </geometry>
      <contact_coefficients kd="1.0" kp="1000.0" mu="0"/>
    </collision>
  </link>
  <gazebo reference="iri_wam_picker_link_7">
    <material>Gazebo/Grey</material>
    <selfCollide>true</selfCollide>
  </gazebo>
  <joint name="iri_wam_picker_joint_7" type="revolute">
    <parent link="iri_wam_picker_link_6"/>
    <child link="iri_wam_picker_link_7"/>
    <origin rpy="1.57079632679 0 0" xyz="0.0 0.0 0.0"/>
    <axis xyz="0 0 1"/>
    <limit effort="100" lower="-3.0" upper="3.0" velocity="2.0"/>
    <dynamics damping="0.1" friction="0.0"/>
    <!--    
        <calibration rising="0.0"/>
        <safety_controller k_velocity="10" k_position="15" soft_lower_limit="-2.0" soft_upper_limit="0.5" />
-->
  </joint>
  <transmission name="tran_7">
    <type>transmission_interface/SimpleTransmission</type>
    <joint name="iri_wam_picker_joint_7">
      <hardwareInterface>EffortJointInterface</hardwareInterface>
    </joint>
    <actuator name="motor_7">
      <hardwareInterface>EffortJointInterface</hardwareInterface>
      <mechanicalReduction>50</mechanicalReduction>
      <motorTorqueConstant>1</motorTorqueConstant>
      <!-- <pulsesPerRevolution>90000</pulsesPerRevolution> -->
    </actuator>
  </transmission>
  <link name="iri_wam_picker_link_tcp"/>
  <joint name="iri_wam_picker_joint_tcp" type="fixed">
    <parent link="iri_wam_picker_link_7"/>
    <child link="iri_wam_picker_link_tcp"/>
    <origin rpy="0 0 0" xyz="0.0 0.0 0.06"/>
  </joint>
  <!--<link name="${prefix}_gripper">-->
  <!--<visual>-->
  <!--<geometry>-->
  <!--<sphere radius="0.04"/>-->
  <!--</geometry>-->
  <!--</visual>-->
  <!--</link>-->
  <!--<joint name="${prefix}_gripper_j" type="fixed">-->
  <!--<parent link="${parent}" />-->
  <!--<child link="${prefix}_gripper" />-->
  <!--<origin xyz="0 0 0.04" rpy="0 0 0" />-->
  <!--</joint>-->
  <link name="iri_wam_picker_gripper_tcp"/>
  <joint name="iri_wam_picker_gripper_tcp_j" type="fixed">
    <parent link="iri_wam_picker_link_tcp"/>
    <child link="iri_wam_picker_gripper_tcp"/>
    <origin rpy="0 0 0" xyz="0.0 0.0 0.115"/>
  </joint>
  <gazebo>
    <plugin filename="libgz_gripper_plugin.so" name="gripper_plugin">
      <gripper_link>iri_wam_picker_link_7</gripper_link>
      <gripper_tf>iri_wam_picker_gripper_tcp</gripper_tf>
    </plugin>
  </gazebo>
  <gazebo reference="iri_wam_picker_gripper">
    <material>Gazebo/Grey</material>
  </gazebo>
  <!-- In gazebo the camera looks along the X axis!!-->
  <gazebo reference="camera_rgb_frame">
    <sensor name="camera" type="depth">
      <update_rate>40</update_rate>
      <camera name="__default__">
        <horizontal_fov>1.0472</horizontal_fov>
        <image>
          <width>640</width>
          <height>480</height>
          <format>R8G8B8</format>
        </image>
        <clip>
          <near>0.05</near>
          <far>3</far>
        </clip>
      </camera>
      <plugin filename="libgazebo_ros_openni_kinect.so" name="kinect_controller">
        <baseline>0.2</baseline>
        <alwaysOn>true</alwaysOn>
        <updateRate>1.0</updateRate>
        <cameraName>kinect_ir</cameraName>
        <imageTopicName>/camera/rgb/image_color</imageTopicName>
        <cameraInfoTopicName>/camera/rgb/camera_info</cameraInfoTopicName>
        <depthImageTopicName>/camera/depth_registered/image_raw</depthImageTopicName>
        <depthImageCameraInfoTopicName>/camera/depth/camera_info</depthImageCameraInfoTopicName>
        <pointCloudTopicName>/camera/depth_registered/points</pointCloudTopicName>
        <frameName>/camera_rgb_optical_frame</frameName>
        <pointCloudCutoff>0.5</pointCloudCutoff>
        <distortionK1>0.00000001</distortionK1>
        <distortionK2>0.00000001</distortionK2>
        <distortionK3>0.00000001</distortionK3>
        <distortionT1>0.00000001</distortionT1>
        <distortionT2>0.00000001</distortionT2>
        <CxPrime>0</CxPrime>
        <Cx>0</Cx>
        <Cy>0</Cy>
        <focalLength>0</focalLength>
        <hackBaseline>0</hackBaseline>
      </plugin>
    </sensor>
    <turnGravityOff>false</turnGravityOff>
  </gazebo>
  <link name="camera_link">
    <visual>
      <origin rpy="0 0 1.57079632679" xyz="0 0 0"/>
      <geometry>
        <mesh filename="package://robots_description/meshes/kinect.dae"/>
      </geometry>
    </visual>
    <collision>
      <origin rpy="0 0 0" xyz="0.0 0.0 0.0"/>
      <geometry>
        <box size="0.07271 0.27794 0.073"/>
      </geometry>
    </collision>
    <inertial>
      <mass value="0.001"/>
      <origin xyz="0 0 0"/>
      <inertia ixx="0.0001" ixy="0.0" ixz="0.0" iyy="0.0001" iyz="0.0" izz="0.0001"/>
    </inertial>
  </link>
  <!-- Fix camera link to parent according to calibration transform.
         Alternatively, we could remove this joint from here and put it at
         the main .urdf.xacro file. -->
  <joint name="camera_joint" type="fixed">
    <origin rpy="0.20236 1.4462 -3.0179" xyz="0.9014760 -0.0594 0.7251720"/>
    <parent link="iri_wam_picker_link_base"/>
    <child link="camera_link"/>
  </joint>
  <link name="camera_rgb_frame"/>
  <joint name="camera_rgb_joint" type="fixed">
    <origin rpy="0 0 0" xyz="0.031 -0.0125 0.016"/>
    <parent link="camera_link"/>
    <child link="camera_rgb_frame"/>
  </joint>
  <link name="camera_rgb_optical_frame"/>
  <joint name="camera_rgb_optical_joint" type="fixed">
    <origin rpy="-1.57079632679 0 -1.57079632679" xyz="0 0 0"/>
    <parent link="camera_rgb_frame"/>
    <child link="camera_rgb_optical_frame"/>
  </joint>
  <link name="camera_depth_frame"/>
  <joint name="camera_depth_joint" type="fixed">
    <origin rpy="0 0 0" xyz="0 0.025 0"/>
    <parent link="camera_rgb_frame"/>
    <child link="camera_depth_frame"/>
  </joint>
  <link name="camera_depth_optical_frame"/>
  <joint name="camera_depth_optical_joint" type="fixed">
    <origin rpy="-1.57079632679 0 -1.57079632679" xyz="0 0 0"/>
    <parent link="camera_depth_frame"/>
    <child link="camera_depth_optical_frame"/>
  </joint>
  <!-- Not used but exposed here for educational purposes -->
  <!-- <xacro:kinect prefix="${robot_name}" parent="${robot_name}_link_tcp"/> -->
  <!-- ros_control plugin -->
  <gazebo>
    <plugin filename="libgazebo_ros_control.so" name="gazebo_ros_control">
      <robotNamespace>/iri_wam_picker</robotNamespace>
      <robotParam>/gazebo/iri_wam_picker_description</robotParam>
      <robotSimType>gazebo_ros_control/DefaultRobotHWSim</robotSimType>
      <controlPeriod>0.002</controlPeriod>
      <eStopTopic>e_stop</eStopTopic>
    </plugin>
  </gazebo>
</robot>

