<?xml version="1.0"?>
<sdf version="1.4">
  <world name="two_arm_setup.world">
    <scene>
      <shadows>false</shadows>
    </scene>

    <include>
      <uri>model://ground_plane</uri>
    </include>

    <include>
      <uri>model://sun</uri>
    </include>

    <include>
      <static>true</static>
      <uri>model://kinect</uri>
      <pose>1.121476 0.0806 1.786 0.28004929646837085 1.3789308289744695 -2.921351560570253</pose>
    </include>

    <include>
      <pose>0.789156 0.449327 0.739466 0 0.010407 -0.029924</pose>
      <uri>model://trapezium</uri>
    </include>

    <include>
      <pose>0.683578 -0.102966 0.729858 0 -0.001141 0.000021</pose>
      <uri>model://star5</uri>
    </include>

    <include>
      <name>lab_table_0</name>
      <pose>1.03288 0.483604 0 0 0 1.5708</pose>
      <uri>model://lab_table</uri>
    </include>

    <include>
      <name>lab_table_1</name>
      <pose>1.03288 -0.176968 0 0 0 1.5708</pose>
      <uri>model://lab_table</uri>
    </include>

    <include>
      <name>pitcher_holder</name>
      <pose>0.163813 0.137 0 0 0 0</pose>
      <uri>model://wam_holder</uri>
    </include>

    <model name="mattress">
      <pose>1.035987 0.153400 0.6975 0 0 1.5708</pose>
      <static>true</static>
        <link name="link">
          <collision name="collision">
            <geometry>
              <box>
                <size>1.293 1.195 0.055</size>
              </box>
            </geometry>
          </collision>
          <visual name="visual">
            <geometry>
              <box>
                <size>1.293 1.195 0.055</size>
              </box>
            </geometry>
            <material>
              <ambient>0.074 0.066  0.058 1</ambient>
              <diffuse>0.74 0.66 0.58 1</diffuse>
            </material>
          </visual>
        </link>
      </model>


    <model name="catcher_holder">
      <pose>0.8 -0.8 0.45 0 0 1.5708</pose>
      <static>true</static>
        <link name="link">
          <collision name="collision">
            <geometry>
              <box>
                <size>0.5 1.15 0.9</size>
              </box>
            </geometry>
          </collision>
          <visual name="visual">
            <geometry>
              <box>
                <size>0.5 1.15 0.9</size>
              </box>
            </geometry>
            <material>
              <ambient>0.05 0.05 0.05 1</ambient>
              <diffuse>0.8 0.8 0.8 1</diffuse>
            </material>
          </visual>
        </link>
    </model>

  </world>
</sdf>
